Micro_Vivado_project/Micro/Pipelined_Processor.sim/sim_1/behav/xsim/PC_tb.vcd
$date
   Fri Dec 12 16:35:03 2025
$end
$version
  2019.1
$end
$timescale
  1ps
$end
$scope module PC_tb $end
$var reg 1 ! clk $end
$var reg 8 " reset_interrupt_target [7:0] $end
$var reg 8 # jump [7:0] $end
$var reg 8 $ retern [7:0] $end
$var reg 3 % PCSrc [2:0] $end
$var wire 8 & PC_next [7:0] $end
$scope module uut $end
$var wire 1 ' clk $end
$var wire 8 ( reset_interrupt_target [7:0] $end
$var wire 8 ) jump [7:0] $end
$var wire 8 * retern [7:0] $end
$var wire 3 + PCSrc [2:0] $end
$var reg 8 , PC_next [7:0] $end
$var reg 8 - PC_current [7:0] $end
$upscope $end
$upscope $end
$enddefinitions $end
#0
$dumpvars
0!
b0 "
b0 #
b0 $
b0 %
bx &
0'
b0 (
b0 )
b0 *
b0 +
bx ,
b0 -
$end
#5000
1!
b0 &
1'
b0 ,
#10000
0!
b10000 "
b0 %
0'
b10000 (
b10000 -
#15000
1!
b10000 &
1'
b10000 ,
#20000
0!
0'
#25000
1!
1'
#30000
0!
b1 %
0'
b1 +
b10001 -
#35000
1!
b10001 &
1'
b10001 ,
b10010 -
#40000
0!
0'
#45000
1!
b10010 &
1'
b10010 ,
b10011 -
#50000
0!
0'
#55000
1!
b10011 &
1'
b10011 ,
b10100 -
#60000
0!
0'
#65000
1!
b10100 &
1'
b10100 ,
b10101 -
#70000
0!
b10 %
0'
b10 +
b10110 -
#75000
1!
b10110 &
1'
b10110 ,
b11000 -
#80000
0!
0'
#85000
1!
b11000 &
1'
b11000 ,
b11010 -
#90000
0!
0'
#95000
1!
b11010 &
1'
b11010 ,
b11100 -
#100000
0!
0'
#105000
1!
b11100 &
1'
b11100 ,
b11110 -
#110000
0!
b1010101 #
b11 %
0'
b1010101 )
b11 +
b1010101 -
#115000
1!
b1010101 &
1'
b1010101 ,
#120000
0!
0'
#125000
1!
1'
#130000
0!
0'
#135000
1!
1'
#140000
0!
b10101010 $
b100 %
0'
b10101010 *
b100 +
b10101010 -
#145000
1!
b10101010 &
1'
b10101010 ,
